Lab 2/CLA/23B0940_lab2_q1q2/cla_32bit.vcd
$date
	Wed Aug 14 10:39:59 2024
$end
$version
	Icarus Verilog
$end
$timescale
	1ps
$end
$scope module tb_cla_32bit $end
$var wire 1 ! cout $end
$var wire 32 " S [31:0] $end
$var wire 1 # Pout $end
$var wire 1 $ Gout $end
$var reg 32 % a [31:0] $end
$var reg 32 & b [31:0] $end
$var reg 1 ' cin $end
$var integer 32 ( i [31:0] $end
$scope module dut $end
$var wire 32 ) a [31:0] $end
$var wire 32 * b [31:0] $end
$var wire 1 ' cin $end
$var wire 32 + sum [31:0] $end
$var wire 2 , lookahead_P [1:0] $end
$var wire 2 - lookahead_G [1:0] $end
$var wire 1 ! cout $end
$var wire 1 . carry_out2 $end
$var wire 1 / carry_out1 $end
$var wire 1 # Pout $end
$var wire 1 $ Gout $end
$var wire 1 0 C16 $end
$scope module a16_bit1 $end
$var wire 16 1 a [15:0] $end
$var wire 16 2 b [15:0] $end
$var wire 1 ' cin $end
$var wire 16 3 sum [15:0] $end
$var wire 4 4 lookahead_P [3:0] $end
$var wire 4 5 lookahead_G [3:0] $end
$var wire 1 / cout $end
$var wire 1 6 Pout $end
$var wire 1 7 Gout $end
$var wire 1 8 C8 $end
$var wire 1 9 C4 $end
$var wire 1 : C12 $end
$scope module PG1 $end
$var wire 1 ; G $end
$var wire 1 < P $end
$var wire 4 = a [3:0] $end
$var wire 4 > b [3:0] $end
$var wire 1 ' cin $end
$var wire 1 ? intermediate1 $end
$var wire 1 @ intermediate2 $end
$var wire 1 A intermediate3 $end
$var wire 4 B sum [3:0] $end
$var wire 4 C internal_P [3:0] $end
$var wire 4 D internal_G [3:0] $end
$var wire 4 E C [3:0] $end
$upscope $end
$scope module PG2 $end
$var wire 1 F G $end
$var wire 1 G P $end
$var wire 4 H a [3:0] $end
$var wire 4 I b [3:0] $end
$var wire 1 J intermediate1 $end
$var wire 1 K intermediate2 $end
$var wire 1 L intermediate3 $end
$var wire 4 M sum [3:0] $end
$var wire 4 N internal_P [3:0] $end
$var wire 4 O internal_G [3:0] $end
$var wire 1 9 cin $end
$var wire 4 P C [3:0] $end
$upscope $end
$scope module PG3 $end
$var wire 1 Q G $end
$var wire 1 R P $end
$var wire 4 S a [3:0] $end
$var wire 4 T b [3:0] $end
$var wire 1 U intermediate1 $end
$var wire 1 V intermediate2 $end
$var wire 1 W intermediate3 $end
$var wire 4 X sum [3:0] $end
$var wire 4 Y internal_P [3:0] $end
$var wire 4 Z internal_G [3:0] $end
$var wire 1 8 cin $end
$var wire 4 [ C [3:0] $end
$upscope $end
$scope module PG4 $end
$var wire 1 \ G $end
$var wire 1 ] P $end
$var wire 4 ^ a [3:0] $end
$var wire 4 _ b [3:0] $end
$var wire 1 ` intermediate1 $end
$var wire 1 a intermediate2 $end
$var wire 1 b intermediate3 $end
$var wire 4 c sum [3:0] $end
$var wire 4 d internal_P [3:0] $end
$var wire 4 e internal_G [3:0] $end
$var wire 1 : cin $end
$var wire 4 f C [3:0] $end
$upscope $end
$scope module lookahead $end
$var wire 1 : C12 $end
$var wire 1 / C16 $end
$var wire 1 9 C4 $end
$var wire 1 8 C8 $end
$var wire 1 g G0 $end
$var wire 1 h G1 $end
$var wire 1 i G2 $end
$var wire 1 j G3 $end
$var wire 1 7 GF $end
$var wire 1 k P0 $end
$var wire 1 l P1 $end
$var wire 1 m P2 $end
$var wire 1 n P3 $end
$var wire 1 6 PF $end
$var wire 1 ' cin $end
$var wire 1 o intermediate1 $end
$var wire 1 p intermediate2 $end
$var wire 1 q intermediate3 $end
$var wire 1 r intermediate4 $end
$upscope $end
$upscope $end
$scope module a16_bit2 $end
$var wire 16 s a [15:0] $end
$var wire 16 t b [15:0] $end
$var wire 16 u sum [15:0] $end
$var wire 4 v lookahead_P [3:0] $end
$var wire 4 w lookahead_G [3:0] $end
$var wire 1 . cout $end
$var wire 1 0 cin $end
$var wire 1 x Pout $end
$var wire 1 y Gout $end
$var wire 1 z C8 $end
$var wire 1 { C4 $end
$var wire 1 | C12 $end
$scope module PG1 $end
$var wire 1 } G $end
$var wire 1 ~ P $end
$var wire 4 !" a [3:0] $end
$var wire 4 "" b [3:0] $end
$var wire 1 #" intermediate1 $end
$var wire 1 $" intermediate2 $end
$var wire 1 %" intermediate3 $end
$var wire 4 &" sum [3:0] $end
$var wire 4 '" internal_P [3:0] $end
$var wire 4 (" internal_G [3:0] $end
$var wire 1 0 cin $end
$var wire 4 )" C [3:0] $end
$upscope $end
$scope module PG2 $end
$var wire 1 *" G $end
$var wire 1 +" P $end
$var wire 4 ," a [3:0] $end
$var wire 4 -" b [3:0] $end
$var wire 1 ." intermediate1 $end
$var wire 1 /" intermediate2 $end
$var wire 1 0" intermediate3 $end
$var wire 4 1" sum [3:0] $end
$var wire 4 2" internal_P [3:0] $end
$var wire 4 3" internal_G [3:0] $end
$var wire 1 { cin $end
$var wire 4 4" C [3:0] $end
$upscope $end
$scope module PG3 $end
$var wire 1 5" G $end
$var wire 1 6" P $end
$var wire 4 7" a [3:0] $end
$var wire 4 8" b [3:0] $end
$var wire 1 9" intermediate1 $end
$var wire 1 :" intermediate2 $end
$var wire 1 ;" intermediate3 $end
$var wire 4 <" sum [3:0] $end
$var wire 4 =" internal_P [3:0] $end
$var wire 4 >" internal_G [3:0] $end
$var wire 1 z cin $end
$var wire 4 ?" C [3:0] $end
$upscope $end
$scope module PG4 $end
$var wire 1 @" G $end
$var wire 1 A" P $end
$var wire 4 B" a [3:0] $end
$var wire 4 C" b [3:0] $end
$var wire 1 D" intermediate1 $end
$var wire 1 E" intermediate2 $end
$var wire 1 F" intermediate3 $end
$var wire 4 G" sum [3:0] $end
$var wire 4 H" internal_P [3:0] $end
$var wire 4 I" internal_G [3:0] $end
$var wire 1 | cin $end
$var wire 4 J" C [3:0] $end
$upscope $end
$scope module lookahead $end
$var wire 1 | C12 $end
$var wire 1 . C16 $end
$var wire 1 { C4 $end
$var wire 1 z C8 $end
$var wire 1 K" G0 $end
$var wire 1 L" G1 $end
$var wire 1 M" G2 $end
$var wire 1 N" G3 $end
$var wire 1 y GF $end
$var wire 1 O" P0 $end
$var wire 1 P" P1 $end
$var wire 1 Q" P2 $end
$var wire 1 R" P3 $end
$var wire 1 x PF $end
$var wire 1 S" intermediate1 $end
$var wire 1 T" intermediate2 $end
$var wire 1 U" intermediate3 $end
$var wire 1 V" intermediate4 $end
$var wire 1 0 cin $end
$upscope $end
$upscope $end
$scope module lk $end
$var wire 1 0 C16 $end
$var wire 1 ! C32 $end
$var wire 1 W" G0 $end
$var wire 1 X" G1 $end
$var wire 1 $ GF $end
$var wire 1 Y" P0 $end
$var wire 1 Z" P1 $end
$var wire 1 # PF $end
$var wire 1 ' cin $end
$var wire 1 [" intermediate1 $end
$var wire 1 \" intermediate2 $end
$upscope $end
$upscope $end
$scope begin $ivl_for_loop0 $end
$var integer 32 ]" j [31:0] $end
$upscope $end
$upscope $end
$enddefinitions $end
#0
$dumpvars
b0 ]"
0\"
0["
0Z"
0Y"
0X"
0W"
0V"
0U"
0T"
0S"
0R"
0Q"
0P"
0O"
0N"
0M"
0L"
0K"
b0 J"
b0 I"
b0 H"
b0 G"
0F"
0E"
0D"
b0 C"
b0 B"
0A"
0@"
b0 ?"
b0 >"
b0 ="
b0 <"
0;"
0:"
09"
b0 8"
b0 7"
06"
05"
b0 4"
b0 3"
b0 2"
b0 1"
00"
0/"
0."
b0 -"
b0 ,"
0+"
0*"
b0 )"
b0 ("
b0 '"
b0 &"
0%"
0$"
0#"
b0 ""
b0 !"
0~
0}
0|
0{
0z
0y
0x
b0 w
b0 v
b0 u
b0 t
b0 s
0r
0q
0p
0o
0n
0m
0l
0k
0j
0i
0h
0g
b0 f
b0 e
b0 d
b0 c
0b
0a
0`
b0 _
b0 ^
0]
0\
b0 [
b0 Z
b0 Y
b0 X
0W
0V
0U
b0 T
b0 S
0R
0Q
b0 P
b0 O
b0 N
b0 M
0L
0K
0J
b0 I
b0 H
0G
0F
b0 E
b0 D
b0 C
b0 B
0A
0@
0?
b0 >
b0 =
0<
0;
0:
09
08
07
06
b0 5
b0 4
b0 3
b0 2
b0 1
00
0/
0.
b0 -
b0 ,
b0 +
b0 *
b0 )
b0 (
0'
b0 &
b0 %
0$
0#
b0 "
0!
$end
#20000
b1 C
b1 "
b1 +
b1 3
b1 B
b1 >
b1 2
b1 &
b1 *
b1 ]"
#40000
b10 C
b10 "
b10 +
b10 3
b10 B
b10 >
b10 2
b10 &
b10 *
b10 ]"
#60000
b11 C
b11 "
b11 +
b11 3
b11 B
b11 >
b11 2
b11 &
b11 *
b11 ]"
#80000
b100 C
b100 "
b100 +
b100 3
b100 B
b100 >
b100 2
b100 &
b100 *
b100 ]"
#100000
b101 C
b101 "
b101 +
b101 3
b101 B
b101 >
b101 2
b101 &
b101 *
b101 ]"
#120000
b110 C
b110 "
b110 +
b110 3
b110 B
b110 >
b110 2
b110 &
b110 *
b110 ]"
#140000
b111 C
b111 "
b111 +
b111 3
b111 B
b111 >
b111 2
b111 &
b111 *
b111 ]"
#160000
b1000 C
b1000 "
b1000 +
b1000 3
b1000 B
b1000 >
b1000 2
b1000 &
b1000 *
b1000 ]"
#180000
b1001 C
b1001 "
b1001 +
b1001 3
b1001 B
b1001 >
b1001 2
b1001 &
b1001 *
b1001 ]"
#200000
b1010 C
b1010 "
b1010 +
b1010 3
b1010 B
b1010 >
b1010 2
b1010 &
b1010 *
b1010 ]"
#220000
b1011 C
b1011 "
b1011 +
b1011 3
b1011 B
b1011 >
b1011 2
b1011 &
b1011 *
b1011 ]"
#240000
b1100 C
b1100 "
b1100 +
b1100 3
b1100 B
b1100 >
b1100 2
b1100 &
b1100 *
b1100 ]"
#260000
b1101 C
b1101 "
b1101 +
b1101 3
b1101 B
b1101 >
b1101 2
b1101 &
b1101 *
b1101 ]"
#280000
b1110 C
b1110 "
b1110 +
b1110 3
b1110 B
b1110 >
b1110 2
b1110 &
b1110 *
b1110 ]"
#300000
1k
b1 4
1<
b1111 C
b1111 "
b1111 +
b1111 3
b1111 B
b1111 >
b1111 2
b1111 &
b1111 *
b1111 ]"
#320000
0k
b0 4
0<
b0 C
b0 B
b1 N
b10000 "
b10000 +
b10000 3
b1 M
b0 >
b1 I
b10000 2
b10000 &
b10000 *
b10000 ]"
#340000
b1 C
b10001 "
b10001 +
b10001 3
b1 B
b1 >
b10001 2
b10001 &
b10001 *
b10001 ]"
#360000
b10 C
b10010 "
b10010 +
b10010 3
b10 B
b10 >
b10010 2
b10010 &
b10010 *
b10010 ]"
#380000
b11 C
b10011 "
b10011 +
b10011 3
b11 B
b11 >
b10011 2
b10011 &
b10011 *
b10011 ]"
#400000
b100 C
b10100 "
b10100 +
b10100 3
b100 B
b100 >
b10100 2
b10100 &
b10100 *
b10100 ]"
#420000
b101 C
b10101 "
b10101 +
b10101 3
b101 B
b101 >
b10101 2
b10101 &
b10101 *
b10101 ]"
#440000
b110 C
b10110 "
b10110 +
b10110 3
b110 B
b110 >
b10110 2
b10110 &
b10110 *
b10110 ]"
#460000
b111 C
b10111 "
b10111 +
b10111 3
b111 B
b111 >
b10111 2
b10111 &
b10111 *
b10111 ]"
#480000
b1000 C
b11000 "
b11000 +
b11000 3
b1000 B
b1000 >
b11000 2
b11000 &
b11000 *
b11000 ]"
#500000
b1001 C
b11001 "
b11001 +
b11001 3
b1001 B
b1001 >
b11001 2
b11001 &
b11001 *
b11001 ]"
#520000
b1010 C
b11010 "
b11010 +
b11010 3
b1010 B
b1010 >
b11010 2
b11010 &
b11010 *
b11010 ]"
#540000
b1011 C
b11011 "
b11011 +
b11011 3
b1011 B
b1011 >
b11011 2
b11011 &
b11011 *
b11011 ]"
#560000
b1100 C
b11100 "
b11100 +
b11100 3
b1100 B
b1100 >
b11100 2
b11100 &
b11100 *
b11100 ]"
#580000
b1101 C
b11101 "
b11101 +
b11101 3
b1101 B
b1101 >
b11101 2
b11101 &
b11101 *
b11101 ]"
#600000
b1110 C
b11110 "
b11110 +
b11110 3
b1110 B
b1110 >
b11110 2
b11110 &
b11110 *
b11110 ]"
#620000
1k
b1 4
1<
b1111 C
b11111 "
b11111 +
b11111 3
b1111 B
b1111 >
b11111 2
b11111 &
b11111 *
b11111 ]"
#640000
0k
b0 4
0<
b0 C
b0 B
b10 N
b100000 "
b100000 +
b100000 3
b10 M
b0 >
b10 I
b100000 2
b100000 &
b100000 *
b100000 ]"
#660000
b1 C
b100001 "
b100001 +
b100001 3
b1 B
b1 >
b100001 2
b100001 &
b100001 *
b100001 ]"
#680000
b10 C
b100010 "
b100010 +
b100010 3
b10 B
b10 >
b100010 2
b100010 &
b100010 *
b100010 ]"
#700000
b11 C
b100011 "
b100011 +
b100011 3
b11 B
b11 >
b100011 2
b100011 &
b100011 *
b100011 ]"
#720000
b100 C
b100100 "
b100100 +
b100100 3
b100 B
b100 >
b100100 2
b100100 &
b100100 *
b100100 ]"
#740000
b101 C
b100101 "
b100101 +
b100101 3
b101 B
b101 >
b100101 2
b100101 &
b100101 *
b100101 ]"
#760000
b110 C
b100110 "
b100110 +
b100110 3
b110 B
b110 >
b100110 2
b100110 &
b100110 *
b100110 ]"
#780000
b111 C
b100111 "
b100111 +
b100111 3
b111 B
b111 >
b100111 2
b100111 &
b100111 *
b100111 ]"
#800000
b1000 C
b101000 "
b101000 +
b101000 3
b1000 B
b1000 >
b101000 2
b101000 &
b101000 *
b101000 ]"
#820000
b1001 C
b101001 "
b101001 +
b101001 3
b1001 B
b1001 >
b101001 2
b101001 &
b101001 *
b101001 ]"
#840000
b1010 C
b101010 "
b101010 +
b101010 3
b1010 B
b1010 >
b101010 2
b101010 &
b101010 *
b101010 ]"
#860000
b1011 C
b101011 "
b101011 +
b101011 3
b1011 B
b1011 >
b101011 2
b101011 &
b101011 *
b101011 ]"
#880000
b1100 C
b101100 "
b101100 +
b101100 3
b1100 B
b1100 >
b101100 2
b101100 &
b101100 *
b101100 ]"
#900000
b1101 C
b101101 "
b101101 +
b101101 3
b1101 B
b1101 >
b101101 2
b101101 &
b101101 *
b101101 ]"
#920000
b1110 C
b101110 "
b101110 +
b101110 3
b1110 B
b1110 >
b101110 2
b101110 &
b101110 *
b101110 ]"
#940000
1k
b1 4
1<
b1111 C
b101111 "
b101111 +
b101111 3
b1111 B
b1111 >
b101111 2
b101111 &
b101111 *
b101111 ]"
#960000
0k
b0 4
0<
b0 C
b0 B
b11 N
b110000 "
b110000 +
b110000 3
b11 M
b0 >
b11 I
b110000 2
b110000 &
b110000 *
b110000 ]"
#980000
b1 C
b110001 "
b110001 +
b110001 3
b1 B
b1 >
b110001 2
b110001 &
b110001 *
b110001 ]"
#1000000
b10 C
b110010 "
b110010 +
b110010 3
b10 B
b10 >
b110010 2
b110010 &
b110010 *
b110010 ]"
#1020000
b11 C
b110011 "
b110011 +
b110011 3
b11 B
b11 >
b110011 2
b110011 &
b110011 *
b110011 ]"
#1040000
b100 C
b110100 "
b110100 +
b110100 3
b100 B
b100 >
b110100 2
b110100 &
b110100 *
b110100 ]"
#1060000
b101 C
b110101 "
b110101 +
b110101 3
b101 B
b101 >
b110101 2
b110101 &
b110101 *
b110101 ]"
#1080000
b110 C
b110110 "
b110110 +
b110110 3
b110 B
b110 >
b110110 2
b110110 &
b110110 *
b110110 ]"
#1100000
b111 C
b110111 "
b110111 +
b110111 3
b111 B
b111 >
b110111 2
b110111 &
b110111 *
b110111 ]"
#1120000
b1000 C
b111000 "
b111000 +
b111000 3
b1000 B
b1000 >
b111000 2
b111000 &
b111000 *
b111000 ]"
#1140000
b1001 C
b111001 "
b111001 +
b111001 3
b1001 B
b1001 >
b111001 2
b111001 &
b111001 *
b111001 ]"
#1160000
b1010 C
b111010 "
b111010 +
b111010 3
b1010 B
b1010 >
b111010 2
b111010 &
b111010 *
b111010 ]"
#1180000
b1011 C
b111011 "
b111011 +
b111011 3
b1011 B
b1011 >
b111011 2
b111011 &
b111011 *
b111011 ]"
#1200000
b1100 C
b111100 "
b111100 +
b111100 3
b1100 B
b1100 >
b111100 2
b111100 &
b111100 *
b111100 ]"
#1220000
b1101 C
b111101 "
b111101 +
b111101 3
b1101 B
b1101 >
b111101 2
b111101 &
b111101 *
b111101 ]"
#1240000
b1110 C
b111110 "
b111110 +
b111110 3
b1110 B
b1110 >
b111110 2
b111110 &
b111110 *
b111110 ]"
#1260000
1k
b1 4
1<
b1111 C
b111111 "
b111111 +
b111111 3
b1111 B
b1111 >
b111111 2
b111111 &
b111111 *
b111111 ]"
#1280000
0k
b0 4
0<
b1 C
b1 B
b0 N
b1 "
b1 +
b1 3
b0 M
b0 >
b0 I
b1 =
b0 2
b1 1
b0 &
b0 *
b1 %
b1 )
b1 (
b0 ]"
#1300000
b10 E
b1 D
b0 C
b10 "
b10 +
b10 3
b10 B
b1 >
b1 2
b1 &
b1 *
b1 ]"
#1320000
b0 E
0@
b0 D
b11 C
b11 "
b11 +
b11 3
b11 B
b10 >
b10 2
b10 &
b10 *
b10 ]"
#1340000
1@
b110 E
b1 D
b10 C
b100 "
b100 +
b100 3
b100 B
b11 >
b11 2
b11 &
b11 *
b11 ]"
#1360000
b0 E
0@
0A
b0 D
b101 C
b101 "
b101 +
b101 3
b101 B
b100 >
b100 2
b100 &
b100 *
b100 ]"
#1380000
b10 E
b1 D
b100 C
b110 "
b110 +
b110 3
b110 B
b101 >
b101 2
b101 &
b101 *
b101 ]"
#1400000
0A
b0 E
0@
b0 D
b111 C
b111 "
b111 +
b111 3
b111 B
b110 >
b110 2
b110 &
b110 *
b110 ]"
#1420000
1A
1@
b1110 E
b1 D
b110 C
b1000 "
b1000 +
b1000 3
b1000 B
b111 >
b111 2
b111 &
b111 *
b111 ]"
#1440000
b0 M
b0 P
09
0g
b0 5
0;
b0 E
0@
0A
b0 D
b1001 C
b1001 "
b1001 +
b1001 3
b1001 B
b1000 >
b1000 2
b1000 &
b1000 *
b1000 ]"
#1460000
b10 E
b1 D
b1000 C
b1010 "
b1010 +
b1010 3
b1010 B
b1001 >
b1001 2
b1001 &
b1001 *
b1001 ]"
#1480000
b0 E
0@
b0 D
b1011 C
b1011 "
b1011 +
b1011 3
b1011 B
b1010 >
b1010 2
b1010 &
b1010 *
b1010 ]"
#1500000
1@
b110 E
b1 D
b1010 C
b1100 "
b1100 +
b1100 3
b1100 B
b1011 >
b1011 2
b1011 &
b1011 *
b1011 ]"
#1520000
b0 M
b0 P
09
0g
b0 5
0;
b0 E
0@
0A
b0 D
b1101 C
b1101 "
b1101 +
b1101 3
b1101 B
b1100 >
b1100 2
b1100 &
b1100 *
b1100 ]"
#1540000
b10 E
b1 D
b1100 C
b1110 "
b1110 +
b1110 3
b1110 B
b1101 >
b1101 2
b1101 &
b1101 *
b1101 ]"
#1560000
0A
1k
b0 E
0@
b1 4
1<
b0 D
b1111 C
b1111 "
b1111 +
b1111 3
b1111 B
b1110 >
b1110 2
b1110 &
b1110 *
b1110 ]"
#1580000
b1 M
b1 P
19
1g
1A
b1 5
1;
1@
0k
b1110 E
b0 4
0<
b1 D
b1110 C
b10000 "
b10000 +
b10000 3
b0 B
b1111 >
b1111 2
b1111 &
b1111 *
b1111 ]"
#1600000
09
0g
b0 5
0;
b0 P
b0 E
0@
0A
0J
b0 D
b1 C
b1 B
b1 N
b10001 "
b10001 +
b10001 3
b1 M
b0 >
b1 I
b10000 2
b10000 &
b10000 *
b10000 ]"
#1620000
b10 E
b1 D
b0 C
b10010 "
b10010 +
b10010 3
b10 B
b1 >
b10001 2
b10001 &
b10001 *
b10001 ]"
#1640000
b0 E
0@
b0 D
b11 C
b10011 "
b10011 +
b10011 3
b11 B
b10 >
b10010 2
b10010 &
b10010 *
b10010 ]"
#1660000
1@
b110 E
b1 D
b10 C
b10100 "
b10100 +
b10100 3
b100 B
b11 >
b10011 2
b10011 &
b10011 *
b10011 ]"
#1680000
b0 E
0@
0A
b0 D
b101 C
b10101 "
b10101 +
b10101 3
b101 B
b100 >
b10100 2
b10100 &
b10100 *
b10100 ]"
#1700000
b10 E
b1 D
b100 C
b10110 "
b10110 +
b10110 3
b110 B
b101 >
b10101 2
b10101 &
b10101 *
b10101 ]"
#1720000
0A
b0 E
0@
b0 D
b111 C
b10111 "
b10111 +
b10111 3
b111 B
b110 >
b10110 2
b10110 &
b10110 *
b10110 ]"
#1740000
1A
1@
b1110 E
b1 D
b110 C
b11000 "
b11000 +
b11000 3
b1000 B
b111 >
b10111 2
b10111 &
b10111 *
b10111 ]"
#1760000
b1 M
0J
b0 P
09
0g
b0 5
0;
b0 E
0@
0A
b0 D
b1001 C
b11001 "
b11001 +
b11001 3
b1001 B
b1000 >
b11000 2
b11000 &
b11000 *
b11000 ]"
#1780000
b10 E
b1 D
b1000 C
b11010 "
b11010 +
b11010 3
b1010 B
b1001 >
b11001 2
b11001 &
b11001 *
b11001 ]"
#1800000
b0 E
0@
b0 D
b1011 C
b11011 "
b11011 +
b11011 3
b1011 B
b1010 >
b11010 2
b11010 &
b11010 *
b11010 ]"
#1820000
1@
b110 E
b1 D
b1010 C
b11100 "
b11100 +
b11100 3
b1100 B
b1011 >
b11011 2
b11011 &
b11011 *
b11011 ]"
#1840000
b1 M
0J
b0 P
09
0g
b0 5
0;
b0 E
0@
0A
b0 D
b1101 C
b11101 "
b11101 +
b11101 3
b1101 B
b1100 >
b11100 2
b11100 &
b11100 *
b11100 ]"
#1860000
b10 E
b1 D
b1100 C
b11110 "
b11110 +
b11110 3
b1110 B
b1101 >
b11101 2
b11101 &
b11101 *
b11101 ]"
#1880000
0A
1k
b0 E
0@
b1 4
1<
b0 D
b1111 C
b11111 "
b11111 +
b11111 3
b1111 B
b1110 >
b11110 2
b11110 &
b11110 *
b11110 ]"
#1900000
b10 M
1J
b11 P
19
1g
1A
b1 5
1;
1@
0k
b1110 E
b0 4
0<
b1 D
b1110 C
b100000 "
b100000 +
b100000 3
b0 B
b1111 >
b11111 2
b11111 &
b11111 *
b11111 ]"
#1920000
09
0g
b0 5
0;
b0 P
b0 E
0@
0A
0J
0K
b0 D
b1 C
b1 B
b10 N
b100001 "
b100001 +
b100001 3
b10 M
b0 >
b10 I
b100000 2
b100000 &
b100000 *
b100000 ]"
#1940000
b10 E
b1 D
b0 C
b100010 "
b100010 +
b100010 3
b10 B
b1 >
b100001 2
b100001 &
b100001 *
b100001 ]"
#1960000
b0 E
0@
b0 D
b11 C
b100011 "
b100011 +
b100011 3
b11 B
b10 >
b100010 2
b100010 &
b100010 *
b100010 ]"
#1980000
1@
b110 E
b1 D
b10 C
b100100 "
b100100 +
b100100 3
b100 B
b11 >
b100011 2
b100011 &
b100011 *
b100011 ]"
#2000000
b0 E
0@
0A
b0 D
b101 C
b100101 "
b100101 +
b100101 3
b101 B
b100 >
b100100 2
b100100 &
b100100 *
b100100 ]"
#2020000
b10 E
b1 D
b100 C
b100110 "
b100110 +
b100110 3
b110 B
b101 >
b100101 2
b100101 &
b100101 *
b100101 ]"
#2040000
0A
b0 E
0@
b0 D
b111 C
b100111 "
b100111 +
b100111 3
b111 B
b110 >
b100110 2
b100110 &
b100110 *
b100110 ]"
#2060000
1A
1@
b1110 E
b1 D
b110 C
b101000 "
b101000 +
b101000 3
b1000 B
b111 >
b100111 2
b100111 &
b100111 *
b100111 ]"
#2080000
b10 M
b0 P
09
0g
b0 5
0;
b0 E
0@
0A
b0 D
b1001 C
b101001 "
b101001 +
b101001 3
b1001 B
b1000 >
b101000 2
b101000 &
b101000 *
b101000 ]"
#2100000
b10 E
b1 D
b1000 C
b101010 "
b101010 +
b101010 3
b1010 B
b1001 >
b101001 2
b101001 &
b101001 *
b101001 ]"
#2120000
b0 E
0@
b0 D
b1011 C
b101011 "
b101011 +
b101011 3
b1011 B
b1010 >
b101010 2
b101010 &
b101010 *
b101010 ]"
#2140000
1@
b110 E
b1 D
b1010 C
b101100 "
b101100 +
b101100 3
b1100 B
b1011 >
b101011 2
b101011 &
b101011 *
b101011 ]"
#2160000
b10 M
b0 P
09
0g
b0 5
0;
b0 E
0@
0A
b0 D
b1101 C
b101101 "
b101101 +
b101101 3
b1101 B
b1100 >
b101100 2
b101100 &
b101100 *
b101100 ]"
#2180000
b10 E
b1 D
b1100 C
b101110 "
b101110 +
b101110 3
b1110 B
b1101 >
b101101 2
b101101 &
b101101 *
b101101 ]"
#2200000
0A
1k
b0 E
0@
b1 4
1<
b0 D
b1111 C
b101111 "
b101111 +
b101111 3
b1111 B
b1110 >
b101110 2
b101110 &
b101110 *
b101110 ]"
#2220000
b11 M
b1 P
19
1g
1A
b1 5
1;
1@
0k
b1110 E
b0 4
0<
b1 D
b1110 C
b110000 "
b110000 +
b110000 3
b0 B
b1111 >
b101111 2
b101111 &
b101111 *
b101111 ]"
#2240000
09
0K
0g
b0 5
0;
b0 P
b0 E
0@
0A
0J
b0 D
b1 C
b1 B
b11 N
b110001 "
b110001 +
b110001 3
b11 M
b0 >
b11 I
b110000 2
b110000 &
b110000 *
b110000 ]"
#2260000
b10 E
b1 D
b0 C
b110010 "
b110010 +
b110010 3
b10 B
b1 >
b110001 2
b110001 &
b110001 *
b110001 ]"
#2280000
b0 E
0@
b0 D
b11 C
b110011 "
b110011 +
b110011 3
b11 B
b10 >
b110010 2
b110010 &
b110010 *
b110010 ]"
#2300000
1@
b110 E
b1 D
b10 C
b110100 "
b110100 +
b110100 3
b100 B
b11 >
b110011 2
b110011 &
b110011 *
b110011 ]"
#2320000
b0 E
0@
0A
b0 D
b101 C
b110101 "
b110101 +
b110101 3
b101 B
b100 >
b110100 2
b110100 &
b110100 *
b110100 ]"
#2340000
b10 E
b1 D
b100 C
b110110 "
b110110 +
b110110 3
b110 B
b101 >
b110101 2
b110101 &
b110101 *
b110101 ]"
#2360000
0A
b0 E
0@
b0 D
b111 C
b110111 "
b110111 +
b110111 3
b111 B
b110 >
b110110 2
b110110 &
b110110 *
b110110 ]"
#2380000
1A
1@
b1110 E
b1 D
b110 C
b111000 "
b111000 +
b111000 3
b1000 B
b111 >
b110111 2
b110111 &
b110111 *
b110111 ]"
#2400000
0K
b11 M
0J
b0 P
09
0g
b0 5
0;
b0 E
0@
0A
b0 D
b1001 C
b111001 "
b111001 +
b111001 3
b1001 B
b1000 >
b111000 2
b111000 &
b111000 *
b111000 ]"
#2420000
b10 E
b1 D
b1000 C
b111010 "
b111010 +
b111010 3
b1010 B
b1001 >
b111001 2
b111001 &
b111001 *
b111001 ]"
#2440000
b0 E
0@
b0 D
b1011 C
b111011 "
b111011 +
b111011 3
b1011 B
b1010 >
b111010 2
b111010 &
b111010 *
b111010 ]"
#2460000
1@
b110 E
b1 D
b1010 C
b111100 "
b111100 +
b111100 3
b1100 B
b1011 >
b111011 2
b111011 &
b111011 *
b111011 ]"
#2480000
0K
b11 M
0J
b0 P
09
0g
b0 5
0;
b0 E
0@
0A
b0 D
b1101 C
b111101 "
b111101 +
b111101 3
b1101 B
b1100 >
b111100 2
b111100 &
b111100 *
b111100 ]"
#2500000
b10 E
b1 D
b1100 C
b111110 "
b111110 +
b111110 3
b1110 B
b1101 >
b111101 2
b111101 &
b111101 *
b111101 ]"
#2520000
0A
1k
b0 E
0@
b1 4
1<
b0 D
b1111 C
b111111 "
b111111 +
b111111 3
b1111 B
b1110 >
b111110 2
b111110 &
b111110 *
b111110 ]"
#2540000
1K
b100 M
1J
b111 P
19
1g
1A
b1 5
1;
1@
0k
b1110 E
b0 4
0<
b1 D
b1110 C
b1000000 "
b1000000 +
b1000000 3
b0 B
b1111 >
b111111 2
b111111 &
b111111 *
b111111 ]"
#2560000
09
0g
0@
b0 5
0;
b0 P
0A
0J
0K
b0 E
b10 C
b10 B
b0 N
b10 "
b10 +
b10 3
b0 M
b0 D
b0 >
b0 I
b10 =
b0 2
b10 1
b0 &
b0 *
b10 %
b10 )
b10 (
b0 ]"
#2580000
b11 C
b11 "
b11 +
b11 3
b11 B
b1 >
b1 2
b1 &
b1 *
b1 ]"
#2600000
b100 E
b10 D
b0 C
b100 "
b100 +
b100 3
b100 B
b10 >
b10 2
b10 &
b10 *
b10 ]"
#2620000
b1 C
b101 "
b101 +
b101 3
b101 B
b11 >
b11 2
b11 &
b11 *
b11 ]"
#2640000
b0 E
0A
b0 D
b110 C
b110 "
b110 +
b110 3
b110 B
b100 >
b100 2
b100 &
b100 *
b100 ]"
#2660000
b111 C
b111 "
b111 +
b111 3
b111 B
b101 >
b101 2
b101 &
b101 *
b101 ]"
#2680000
1A
b1100 E
b10 D
b100 C
b1000 "
b1000 +
b1000 3
b1000 B
b110 >
b110 2
b110 &
b110 *
b110 ]"
#2700000
b101 C
b1001 "
b1001 +
b1001 3
b1001 B
b111 >
b111 2
b111 &
b111 *
b111 ]"
#2720000
b0 M
b0 P
09
0g
b0 5
0;
b0 E
0A
b0 D
b1010 C
b1010 "
b1010 +
b1010 3
b1010 B
b1000 >
b1000 2
b1000 &
b1000 *
b1000 ]"
#2740000
b1011 C
b1011 "
b1011 +
b1011 3
b1011 B
b1001 >
b1001 2
b1001 &
b1001 *
b1001 ]"
#2760000
b100 E
b10 D
b1000 C
b1100 "
b1100 +
b1100 3
b1100 B
b1010 >
b1010 2
b1010 &
b1010 *
b1010 ]"
#2780000
b1001 C
b1101 "
b1101 +
b1101 3
b1101 B
b1011 >
b1011 2
b1011 &
b1011 *
b1011 ]"
#2800000
b0 M
b0 P
09
0g
b0 5
0;
b0 E
0A
b0 D
b1110 C
b1110 "
b1110 +
b1110 3
b1110 B
b1100 >
b1100 2
b1100 &
b1100 *
b1100 ]"
#2820000
1k
b1 4
1<
b1111 C
b1111 "
b1111 +
b1111 3
b1111 B
b1101 >
b1101 2
b1101 &
b1101 *
b1101 ]"
