Lab 2/CLA/23B0940_lab2_q1q2/rca_32bit.vcd
$date
	Wed Aug 14 10:48:26 2024
$end
$version
	Icarus Verilog
$end
$timescale
	1ps
$end
$scope module tb_rca_32_bit $end
$var wire 1 ! cout $end
$var wire 32 " S [31:0] $end
$var reg 32 # A [31:0] $end
$var reg 32 $ B [31:0] $end
$var reg 1 % cin $end
$var integer 32 & i [31:0] $end
$scope module dut $end
$var wire 32 ' a [31:0] $end
$var wire 32 ( b [31:0] $end
$var wire 1 % cin $end
$var wire 32 ) intermediate_carries [31:0] $end
$var wire 1 ! cout $end
$var wire 32 * S [31:0] $end
$scope begin genblk1[1] $end
$scope module fi $end
$var wire 1 + a $end
$var wire 1 , b $end
$var wire 1 - cin $end
$var wire 1 . cout $end
$var wire 1 / third $end
$var wire 1 0 second $end
$var wire 1 1 first $end
$var wire 1 2 S $end
$scope module h1 $end
$var wire 1 1 S $end
$var wire 1 + a $end
$var wire 1 , b $end
$var wire 1 0 cout $end
$upscope $end
$scope module h2 $end
$var wire 1 2 S $end
$var wire 1 1 a $end
$var wire 1 - b $end
$var wire 1 / cout $end
$upscope $end
$upscope $end
$upscope $end
$scope begin genblk1[2] $end
$scope module fi $end
$var wire 1 3 a $end
$var wire 1 4 b $end
$var wire 1 5 cin $end
$var wire 1 6 cout $end
$var wire 1 7 third $end
$var wire 1 8 second $end
$var wire 1 9 first $end
$var wire 1 : S $end
$scope module h1 $end
$var wire 1 9 S $end
$var wire 1 3 a $end
$var wire 1 4 b $end
$var wire 1 8 cout $end
$upscope $end
$scope module h2 $end
$var wire 1 : S $end
$var wire 1 9 a $end
$var wire 1 5 b $end
$var wire 1 7 cout $end
$upscope $end
$upscope $end
$upscope $end
$scope begin genblk1[3] $end
$scope module fi $end
$var wire 1 ; a $end
$var wire 1 < b $end
$var wire 1 = cin $end
$var wire 1 > cout $end
$var wire 1 ? third $end
$var wire 1 @ second $end
$var wire 1 A first $end
$var wire 1 B S $end
$scope module h1 $end
$var wire 1 A S $end
$var wire 1 ; a $end
$var wire 1 < b $end
$var wire 1 @ cout $end
$upscope $end
$scope module h2 $end
$var wire 1 B S $end
$var wire 1 A a $end
$var wire 1 = b $end
$var wire 1 ? cout $end
$upscope $end
$upscope $end
$upscope $end
$scope begin genblk1[4] $end
$scope module fi $end
$var wire 1 C a $end
$var wire 1 D b $end
$var wire 1 E cin $end
$var wire 1 F cout $end
$var wire 1 G third $end
$var wire 1 H second $end
$var wire 1 I first $end
$var wire 1 J S $end
$scope module h1 $end
$var wire 1 I S $end
$var wire 1 C a $end
$var wire 1 D b $end
$var wire 1 H cout $end
$upscope $end
$scope module h2 $end
$var wire 1 J S $end
$var wire 1 I a $end
$var wire 1 E b $end
$var wire 1 G cout $end
$upscope $end
$upscope $end
$upscope $end
$scope begin genblk1[5] $end
$scope module fi $end
$var wire 1 K a $end
$var wire 1 L b $end
$var wire 1 M cin $end
$var wire 1 N cout $end
$var wire 1 O third $end
$var wire 1 P second $end
$var wire 1 Q first $end
$var wire 1 R S $end
$scope module h1 $end
$var wire 1 Q S $end
$var wire 1 K a $end
$var wire 1 L b $end
$var wire 1 P cout $end
$upscope $end
$scope module h2 $end
$var wire 1 R S $end
$var wire 1 Q a $end
$var wire 1 M b $end
$var wire 1 O cout $end
$upscope $end
$upscope $end
$upscope $end
$scope begin genblk1[6] $end
$scope module fi $end
$var wire 1 S a $end
$var wire 1 T b $end
$var wire 1 U cin $end
$var wire 1 V cout $end
$var wire 1 W third $end
$var wire 1 X second $end
$var wire 1 Y first $end
$var wire 1 Z S $end
$scope module h1 $end
$var wire 1 Y S $end
$var wire 1 S a $end
$var wire 1 T b $end
$var wire 1 X cout $end
$upscope $end
$scope module h2 $end
$var wire 1 Z S $end
$var wire 1 Y a $end
$var wire 1 U b $end
$var wire 1 W cout $end
$upscope $end
$upscope $end
$upscope $end
$scope begin genblk1[7] $end
$scope module fi $end
$var wire 1 [ a $end
$var wire 1 \ b $end
$var wire 1 ] cin $end
$var wire 1 ^ cout $end
$var wire 1 _ third $end
$var wire 1 ` second $end
$var wire 1 a first $end
$var wire 1 b S $end
$scope module h1 $end
$var wire 1 a S $end
$var wire 1 [ a $end
$var wire 1 \ b $end
$var wire 1 ` cout $end
$upscope $end
$scope module h2 $end
$var wire 1 b S $end
$var wire 1 a a $end
$var wire 1 ] b $end
$var wire 1 _ cout $end
$upscope $end
$upscope $end
$upscope $end
$scope begin genblk1[8] $end
$scope module fi $end
$var wire 1 c a $end
$var wire 1 d b $end
$var wire 1 e cin $end
$var wire 1 f cout $end
$var wire 1 g third $end
$var wire 1 h second $end
$var wire 1 i first $end
$var wire 1 j S $end
$scope module h1 $end
$var wire 1 i S $end
$var wire 1 c a $end
$var wire 1 d b $end
$var wire 1 h cout $end
$upscope $end
$scope module h2 $end
$var wire 1 j S $end
$var wire 1 i a $end
$var wire 1 e b $end
$var wire 1 g cout $end
$upscope $end
$upscope $end
$upscope $end
$scope begin genblk1[9] $end
$scope module fi $end
$var wire 1 k a $end
$var wire 1 l b $end
$var wire 1 m cin $end
$var wire 1 n cout $end
$var wire 1 o third $end
$var wire 1 p second $end
$var wire 1 q first $end
$var wire 1 r S $end
$scope module h1 $end
$var wire 1 q S $end
$var wire 1 k a $end
$var wire 1 l b $end
$var wire 1 p cout $end
$upscope $end
$scope module h2 $end
$var wire 1 r S $end
$var wire 1 q a $end
$var wire 1 m b $end
$var wire 1 o cout $end
$upscope $end
$upscope $end
$upscope $end
$scope begin genblk1[10] $end
$scope module fi $end
$var wire 1 s a $end
$var wire 1 t b $end
$var wire 1 u cin $end
$var wire 1 v cout $end
$var wire 1 w third $end
$var wire 1 x second $end
$var wire 1 y first $end
$var wire 1 z S $end
$scope module h1 $end
$var wire 1 y S $end
$var wire 1 s a $end
$var wire 1 t b $end
$var wire 1 x cout $end
$upscope $end
$scope module h2 $end
$var wire 1 z S $end
$var wire 1 y a $end
$var wire 1 u b $end
$var wire 1 w cout $end
$upscope $end
$upscope $end
$upscope $end
$scope begin genblk1[11] $end
$scope module fi $end
$var wire 1 { a $end
$var wire 1 | b $end
$var wire 1 } cin $end
$var wire 1 ~ cout $end
$var wire 1 !" third $end
$var wire 1 "" second $end
$var wire 1 #" first $end
$var wire 1 $" S $end
$scope module h1 $end
$var wire 1 #" S $end
$var wire 1 { a $end
$var wire 1 | b $end
$var wire 1 "" cout $end
$upscope $end
$scope module h2 $end
$var wire 1 $" S $end
$var wire 1 #" a $end
$var wire 1 } b $end
$var wire 1 !" cout $end
$upscope $end
$upscope $end
$upscope $end
$scope begin genblk1[12] $end
$scope module fi $end
$var wire 1 %" a $end
$var wire 1 &" b $end
$var wire 1 '" cin $end
$var wire 1 (" cout $end
$var wire 1 )" third $end
$var wire 1 *" second $end
$var wire 1 +" first $end
$var wire 1 ," S $end
$scope module h1 $end
$var wire 1 +" S $end
$var wire 1 %" a $end
$var wire 1 &" b $end
$var wire 1 *" cout $end
$upscope $end
$scope module h2 $end
$var wire 1 ," S $end
$var wire 1 +" a $end
$var wire 1 '" b $end
$var wire 1 )" cout $end
$upscope $end
$upscope $end
$upscope $end
$scope begin genblk1[13] $end
$scope module fi $end
$var wire 1 -" a $end
$var wire 1 ." b $end
$var wire 1 /" cin $end
$var wire 1 0" cout $end
$var wire 1 1" third $end
$var wire 1 2" second $end
$var wire 1 3" first $end
$var wire 1 4" S $end
$scope module h1 $end
$var wire 1 3" S $end
$var wire 1 -" a $end
$var wire 1 ." b $end
$var wire 1 2" cout $end
$upscope $end
$scope module h2 $end
$var wire 1 4" S $end
$var wire 1 3" a $end
$var wire 1 /" b $end
$var wire 1 1" cout $end
$upscope $end
$upscope $end
$upscope $end
$scope begin genblk1[14] $end
$scope module fi $end
$var wire 1 5" a $end
$var wire 1 6" b $end
$var wire 1 7" cin $end
$var wire 1 8" cout $end
$var wire 1 9" third $end
$var wire 1 :" second $end
$var wire 1 ;" first $end
$var wire 1 <" S $end
$scope module h1 $end
$var wire 1 ;" S $end
$var wire 1 5" a $end
$var wire 1 6" b $end
$var wire 1 :" cout $end
$upscope $end
$scope module h2 $end
$var wire 1 <" S $end
$var wire 1 ;" a $end
$var wire 1 7" b $end
$var wire 1 9" cout $end
$upscope $end
$upscope $end
$upscope $end
$scope begin genblk1[15] $end
$scope module fi $end
$var wire 1 =" a $end
$var wire 1 >" b $end
$var wire 1 ?" cin $end
$var wire 1 @" cout $end
$var wire 1 A" third $end
$var wire 1 B" second $end
$var wire 1 C" first $end
$var wire 1 D" S $end
$scope module h1 $end
$var wire 1 C" S $end
$var wire 1 =" a $end
$var wire 1 >" b $end
$var wire 1 B" cout $end
$upscope $end
$scope module h2 $end
$var wire 1 D" S $end
$var wire 1 C" a $end
$var wire 1 ?" b $end
$var wire 1 A" cout $end
$upscope $end
$upscope $end
$upscope $end
$scope begin genblk1[16] $end
$scope module fi $end
$var wire 1 E" a $end
$var wire 1 F" b $end
$var wire 1 G" cin $end
$var wire 1 H" cout $end
$var wire 1 I" third $end
$var wire 1 J" second $end
$var wire 1 K" first $end
$var wire 1 L" S $end
$scope module h1 $end
$var wire 1 K" S $end
$var wire 1 E" a $end
$var wire 1 F" b $end
$var wire 1 J" cout $end
$upscope $end
$scope module h2 $end
$var wire 1 L" S $end
$var wire 1 K" a $end
$var wire 1 G" b $end
$var wire 1 I" cout $end
$upscope $end
$upscope $end
$upscope $end
$scope begin genblk1[17] $end
$scope module fi $end
$var wire 1 M" a $end
$var wire 1 N" b $end
$var wire 1 O" cin $end
$var wire 1 P" cout $end
$var wire 1 Q" third $end
$var wire 1 R" second $end
$var wire 1 S" first $end
$var wire 1 T" S $end
$scope module h1 $end
$var wire 1 S" S $end
$var wire 1 M" a $end
$var wire 1 N" b $end
$var wire 1 R" cout $end
$upscope $end
$scope module h2 $end
$var wire 1 T" S $end
$var wire 1 S" a $end
$var wire 1 O" b $end
$var wire 1 Q" cout $end
$upscope $end
$upscope $end
$upscope $end
$scope begin genblk1[18] $end
$scope module fi $end
$var wire 1 U" a $end
$var wire 1 V" b $end
$var wire 1 W" cin $end
$var wire 1 X" cout $end
$var wire 1 Y" third $end
$var wire 1 Z" second $end
$var wire 1 [" first $end
$var wire 1 \" S $end
$scope module h1 $end
$var wire 1 [" S $end
$var wire 1 U" a $end
$var wire 1 V" b $end
$var wire 1 Z" cout $end
$upscope $end
$scope module h2 $end
$var wire 1 \" S $end
$var wire 1 [" a $end
$var wire 1 W" b $end
$var wire 1 Y" cout $end
$upscope $end
$upscope $end
$upscope $end
$scope begin genblk1[19] $end
$scope module fi $end
$var wire 1 ]" a $end
$var wire 1 ^" b $end
$var wire 1 _" cin $end
$var wire 1 `" cout $end
$var wire 1 a" third $end
$var wire 1 b" second $end
$var wire 1 c" first $end
$var wire 1 d" S $end
$scope module h1 $end
$var wire 1 c" S $end
$var wire 1 ]" a $end
$var wire 1 ^" b $end
$var wire 1 b" cout $end
$upscope $end
$scope module h2 $end
$var wire 1 d" S $end
$var wire 1 c" a $end
$var wire 1 _" b $end
$var wire 1 a" cout $end
$upscope $end
$upscope $end
$upscope $end
$scope begin genblk1[20] $end
$scope module fi $end
$var wire 1 e" a $end
$var wire 1 f" b $end
$var wire 1 g" cin $end
$var wire 1 h" cout $end
$var wire 1 i" third $end
$var wire 1 j" second $end
$var wire 1 k" first $end
$var wire 1 l" S $end
$scope module h1 $end
$var wire 1 k" S $end
$var wire 1 e" a $end
$var wire 1 f" b $end
$var wire 1 j" cout $end
$upscope $end
$scope module h2 $end
$var wire 1 l" S $end
$var wire 1 k" a $end
$var wire 1 g" b $end
$var wire 1 i" cout $end
$upscope $end
$upscope $end
$upscope $end
$scope begin genblk1[21] $end
$scope module fi $end
$var wire 1 m" a $end
$var wire 1 n" b $end
$var wire 1 o" cin $end
$var wire 1 p" cout $end
$var wire 1 q" third $end
$var wire 1 r" second $end
$var wire 1 s" first $end
$var wire 1 t" S $end
$scope module h1 $end
$var wire 1 s" S $end
$var wire 1 m" a $end
$var wire 1 n" b $end
$var wire 1 r" cout $end
$upscope $end
$scope module h2 $end
$var wire 1 t" S $end
$var wire 1 s" a $end
$var wire 1 o" b $end
$var wire 1 q" cout $end
$upscope $end
$upscope $end
$upscope $end
$scope begin genblk1[22] $end
$scope module fi $end
$var wire 1 u" a $end
$var wire 1 v" b $end
$var wire 1 w" cin $end
$var wire 1 x" cout $end
$var wire 1 y" third $end
$var wire 1 z" second $end
$var wire 1 {" first $end
$var wire 1 |" S $end
$scope module h1 $end
$var wire 1 {" S $end
$var wire 1 u" a $end
$var wire 1 v" b $end
$var wire 1 z" cout $end
$upscope $end
$scope module h2 $end
$var wire 1 |" S $end
$var wire 1 {" a $end
$var wire 1 w" b $end
$var wire 1 y" cout $end
$upscope $end
$upscope $end
$upscope $end
$scope begin genblk1[23] $end
$scope module fi $end
$var wire 1 }" a $end
$var wire 1 ~" b $end
$var wire 1 !# cin $end
$var wire 1 "# cout $end
$var wire 1 ## third $end
$var wire 1 $# second $end
$var wire 1 %# first $end
$var wire 1 &# S $end
$scope module h1 $end
$var wire 1 %# S $end
$var wire 1 }" a $end
$var wire 1 ~" b $end
$var wire 1 $# cout $end
$upscope $end
$scope module h2 $end
$var wire 1 &# S $end
$var wire 1 %# a $end
$var wire 1 !# b $end
$var wire 1 ## cout $end
$upscope $end
$upscope $end
$upscope $end
$scope begin genblk1[24] $end
$scope module fi $end
$var wire 1 '# a $end
$var wire 1 (# b $end
$var wire 1 )# cin $end
$var wire 1 *# cout $end
$var wire 1 +# third $end
$var wire 1 ,# second $end
$var wire 1 -# first $end
$var wire 1 .# S $end
$scope module h1 $end
$var wire 1 -# S $end
$var wire 1 '# a $end
$var wire 1 (# b $end
$var wire 1 ,# cout $end
$upscope $end
$scope module h2 $end
$var wire 1 .# S $end
$var wire 1 -# a $end
$var wire 1 )# b $end
$var wire 1 +# cout $end
$upscope $end
$upscope $end
$upscope $end
$scope begin genblk1[25] $end
$scope module fi $end
$var wire 1 /# a $end
$var wire 1 0# b $end
$var wire 1 1# cin $end
$var wire 1 2# cout $end
$var wire 1 3# third $end
$var wire 1 4# second $end
$var wire 1 5# first $end
$var wire 1 6# S $end
$scope module h1 $end
$var wire 1 5# S $end
$var wire 1 /# a $end
$var wire 1 0# b $end
$var wire 1 4# cout $end
$upscope $end
$scope module h2 $end
$var wire 1 6# S $end
$var wire 1 5# a $end
$var wire 1 1# b $end
$var wire 1 3# cout $end
$upscope $end
$upscope $end
$upscope $end
$scope begin genblk1[26] $end
$scope module fi $end
$var wire 1 7# a $end
$var wire 1 8# b $end
$var wire 1 9# cin $end
$var wire 1 :# cout $end
$var wire 1 ;# third $end
$var wire 1 <# second $end
$var wire 1 =# first $end
$var wire 1 ># S $end
$scope module h1 $end
$var wire 1 =# S $end
$var wire 1 7# a $end
$var wire 1 8# b $end
$var wire 1 <# cout $end
$upscope $end
$scope module h2 $end
$var wire 1 ># S $end
$var wire 1 =# a $end
$var wire 1 9# b $end
$var wire 1 ;# cout $end
$upscope $end
$upscope $end
$upscope $end
$scope begin genblk1[27] $end
$scope module fi $end
$var wire 1 ?# a $end
$var wire 1 @# b $end
$var wire 1 A# cin $end
$var wire 1 B# cout $end
$var wire 1 C# third $end
$var wire 1 D# second $end
$var wire 1 E# first $end
$var wire 1 F# S $end
$scope module h1 $end
$var wire 1 E# S $end
$var wire 1 ?# a $end
$var wire 1 @# b $end
$var wire 1 D# cout $end
$upscope $end
$scope module h2 $end
$var wire 1 F# S $end
$var wire 1 E# a $end
$var wire 1 A# b $end
$var wire 1 C# cout $end
$upscope $end
$upscope $end
$upscope $end
$scope begin genblk1[28] $end
$scope module fi $end
$var wire 1 G# a $end
$var wire 1 H# b $end
$var wire 1 I# cin $end
$var wire 1 J# cout $end
$var wire 1 K# third $end
$var wire 1 L# second $end
$var wire 1 M# first $end
$var wire 1 N# S $end
$scope module h1 $end
$var wire 1 M# S $end
$var wire 1 G# a $end
$var wire 1 H# b $end
$var wire 1 L# cout $end
$upscope $end
$scope module h2 $end
$var wire 1 N# S $end
$var wire 1 M# a $end
$var wire 1 I# b $end
$var wire 1 K# cout $end
$upscope $end
$upscope $end
$upscope $end
$scope begin genblk1[29] $end
$scope module fi $end
$var wire 1 O# a $end
$var wire 1 P# b $end
$var wire 1 Q# cin $end
$var wire 1 R# cout $end
$var wire 1 S# third $end
$var wire 1 T# second $end
$var wire 1 U# first $end
$var wire 1 V# S $end
$scope module h1 $end
$var wire 1 U# S $end
$var wire 1 O# a $end
$var wire 1 P# b $end
$var wire 1 T# cout $end
$upscope $end
$scope module h2 $end
$var wire 1 V# S $end
$var wire 1 U# a $end
$var wire 1 Q# b $end
$var wire 1 S# cout $end
$upscope $end
$upscope $end
$upscope $end
$scope begin genblk1[30] $end
$scope module fi $end
$var wire 1 W# a $end
$var wire 1 X# b $end
$var wire 1 Y# cin $end
$var wire 1 Z# cout $end
$var wire 1 [# third $end
$var wire 1 \# second $end
$var wire 1 ]# first $end
$var wire 1 ^# S $end
$scope module h1 $end
$var wire 1 ]# S $end
$var wire 1 W# a $end
$var wire 1 X# b $end
$var wire 1 \# cout $end
$upscope $end
$scope module h2 $end
$var wire 1 ^# S $end
$var wire 1 ]# a $end
$var wire 1 Y# b $end
$var wire 1 [# cout $end
$upscope $end
$upscope $end
$upscope $end
$scope begin genblk1[31] $end
$scope module fi $end
$var wire 1 _# a $end
$var wire 1 `# b $end
$var wire 1 a# cin $end
$var wire 1 b# cout $end
$var wire 1 c# third $end
$var wire 1 d# second $end
$var wire 1 e# first $end
$var wire 1 f# S $end
$scope module h1 $end
$var wire 1 e# S $end
$var wire 1 _# a $end
$var wire 1 `# b $end
$var wire 1 d# cout $end
$upscope $end
$scope module h2 $end
$var wire 1 f# S $end
$var wire 1 e# a $end
$var wire 1 a# b $end
$var wire 1 c# cout $end
$upscope $end
$upscope $end
$upscope $end
$scope module f1 $end
$var wire 1 g# a $end
$var wire 1 h# b $end
$var wire 1 % cin $end
$var wire 1 i# cout $end
$var wire 1 j# third $end
$var wire 1 k# second $end
$var wire 1 l# first $end
$var wire 1 m# S $end
$scope module h1 $end
$var wire 1 l# S $end
$var wire 1 g# a $end
$var wire 1 h# b $end
$var wire 1 k# cout $end
$upscope $end
$scope module h2 $end
$var wire 1 m# S $end
$var wire 1 l# a $end
$var wire 1 % b $end
$var wire 1 j# cout $end
$upscope $end
$upscope $end
$upscope $end
$scope begin $ivl_for_loop0 $end
$var integer 32 n# j [31:0] $end
$upscope $end
$upscope $end
$enddefinitions $end
#0
$dumpvars
b0 n#
0m#
0l#
0k#
0j#
0i#
0h#
0g#
0f#
0e#
0d#
0c#
0b#
0a#
0`#
0_#
0^#
0]#
0\#
0[#
0Z#
0Y#
0X#
0W#
0V#
0U#
0T#
0S#
0R#
0Q#
0P#
0O#
0N#
0M#
0L#
0K#
0J#
0I#
0H#
0G#
0F#
0E#
0D#
0C#
0B#
0A#
0@#
0?#
0>#
0=#
0<#
0;#
0:#
09#
08#
07#
06#
05#
04#
03#
02#
01#
00#
0/#
0.#
0-#
0,#
0+#
0*#
0)#
0(#
0'#
0&#
0%#
0$#
0##
0"#
0!#
0~"
0}"
0|"
0{"
0z"
0y"
0x"
0w"
0v"
0u"
0t"
0s"
0r"
0q"
0p"
0o"
0n"
0m"
0l"
0k"
0j"
0i"
0h"
0g"
0f"
0e"
0d"
0c"
0b"
0a"
0`"
0_"
0^"
0]"
0\"
0["
0Z"
0Y"
0X"
0W"
0V"
0U"
0T"
0S"
0R"
0Q"
0P"
0O"
0N"
0M"
0L"
0K"
0J"
0I"
0H"
0G"
0F"
0E"
0D"
0C"
0B"
0A"
0@"
0?"
0>"
0="
0<"
0;"
0:"
09"
08"
07"
06"
05"
04"
03"
02"
01"
00"
0/"
0."
0-"
0,"
0+"
0*"
0)"
0("
0'"
0&"
0%"
0$"
0#"
0""
0!"
0~
0}
0|
0{
0z
0y
0x
0w
0v
0u
0t
0s
0r
0q
0p
0o
0n
0m
0l
0k
0j
0i
0h
0g
0f
0e
0d
0c
0b
0a
0`
0_
0^
0]
0\
0[
0Z
0Y
0X
0W
0V
0U
0T
0S
0R
0Q
0P
0O
0N
0M
0L
0K
0J
0I
0H
0G
0F
0E
0D
0C
0B
0A
0@
0?
0>
0=
0<
0;
0:
09
08
07
06
05
04
03
02
01
00
0/
0.
0-
0,
0+
b0 *
b0 )
b0 (
b0 '
b0 &
0%
b0 $
b0 #
b0 "
0!
$end
#20000
b1 "
b1 *
1m#
1l#
1h#
b1 $
b1 (
b1 n#
#40000
12
b10 "
b10 *
0m#
11
0l#
1,
0h#
b10 $
b10 (
b10 n#
#60000
b11 "
b11 *
1m#
1l#
1h#
b11 $
b11 (
b11 n#
#80000
02
1:
b100 "
b100 *
0m#
01
19
0l#
0,
14
0h#
b100 $
b100 (
b100 n#
#100000
b101 "
b101 *
1m#
1l#
1h#
b101 $
b101 (
b101 n#
#120000
12
b110 "
b110 *
0m#
11
0l#
1,
0h#
b110 $
b110 (
b110 n#
#140000
b111 "
b111 *
1m#
1l#
1h#
b111 $
b111 (
b111 n#
#160000
02
0:
1B
b1000 "
b1000 *
0m#
01
09
1A
0l#
0,
04
1<
0h#
b1000 $
b1000 (
b1000 n#
#180000
b1001 "
b1001 *
1m#
1l#
1h#
b1001 $
b1001 (
b1001 n#
#200000
12
b1010 "
b1010 *
0m#
11
0l#
1,
0h#
b1010 $
b1010 (
b1010 n#
#220000
b1011 "
b1011 *
1m#
1l#
1h#
b1011 $
b1011 (
b1011 n#
#240000
02
1:
b1100 "
b1100 *
0m#
01
19
0l#
0,
14
0h#
b1100 $
b1100 (
b1100 n#
#260000
b1101 "
b1101 *
1m#
1l#
1h#
b1101 $
b1101 (
b1101 n#
#280000
12
b1110 "
b1110 *
0m#
11
0l#
1,
0h#
b1110 $
b1110 (
b1110 n#
#300000
b1111 "
b1111 *
1m#
1l#
1h#
b1111 $
b1111 (
b1111 n#
#320000
02
0:
0B
1J
b10000 "
b10000 *
0m#
01
09
0A
1I
0l#
0,
04
0<
1D
0h#
b10000 $
b10000 (
b10000 n#
#340000
b10001 "
b10001 *
1m#
1l#
1h#
b10001 $
b10001 (
b10001 n#
#360000
12
b10010 "
b10010 *
0m#
11
0l#
1,
0h#
b10010 $
b10010 (
b10010 n#
#380000
b10011 "
b10011 *
1m#
1l#
1h#
b10011 $
b10011 (
b10011 n#
#400000
02
1:
b10100 "
b10100 *
0m#
01
19
0l#
0,
14
0h#
b10100 $
b10100 (
b10100 n#
#420000
b10101 "
b10101 *
1m#
1l#
1h#
b10101 $
b10101 (
b10101 n#
#440000
12
b10110 "
b10110 *
0m#
11
0l#
1,
0h#
b10110 $
b10110 (
b10110 n#
#460000
b10111 "
b10111 *
1m#
1l#
1h#
b10111 $
b10111 (
b10111 n#
#480000
02
0:
1B
b11000 "
b11000 *
0m#
01
09
1A
0l#
0,
04
1<
0h#
b11000 $
b11000 (
b11000 n#
#500000
b11001 "
b11001 *
1m#
1l#
1h#
b11001 $
b11001 (
b11001 n#
#520000
12
b11010 "
b11010 *
0m#
11
0l#
1,
0h#
b11010 $
b11010 (
b11010 n#
#540000
b11011 "
b11011 *
1m#
1l#
1h#
b11011 $
b11011 (
b11011 n#
#560000
02
1:
b11100 "
b11100 *
0m#
01
19
0l#
0,
14
0h#
b11100 $
b11100 (
b11100 n#
#580000
b11101 "
b11101 *
1m#
1l#
1h#
b11101 $
b11101 (
b11101 n#
#600000
12
b11110 "
b11110 *
0m#
11
0l#
1,
0h#
b11110 $
b11110 (
b11110 n#
#620000
b11111 "
b11111 *
1m#
1l#
1h#
b11111 $
b11111 (
b11111 n#
#640000
02
0:
0B
0J
1R
b100000 "
b100000 *
0m#
01
09
0A
0I
1Q
0l#
0,
04
0<
0D
1L
0h#
b100000 $
b100000 (
b100000 n#
#660000
b100001 "
b100001 *
1m#
1l#
1h#
b100001 $
b100001 (
b100001 n#
#680000
12
b100010 "
b100010 *
0m#
11
0l#
1,
0h#
b100010 $
b100010 (
b100010 n#
#700000
b100011 "
b100011 *
1m#
1l#
1h#
b100011 $
b100011 (
b100011 n#
#720000
02
1:
b100100 "
b100100 *
0m#
01
19
0l#
0,
14
0h#
b100100 $
b100100 (
b100100 n#
#740000
b100101 "
b100101 *
1m#
1l#
1h#
b100101 $
b100101 (
b100101 n#
#760000
12
b100110 "
b100110 *
0m#
11
0l#
1,
0h#
b100110 $
b100110 (
b100110 n#
#780000
b100111 "
b100111 *
1m#
1l#
1h#
b100111 $
b100111 (
b100111 n#
#800000
02
0:
1B
b101000 "
b101000 *
0m#
01
09
1A
0l#
0,
04
1<
0h#
b101000 $
b101000 (
b101000 n#
#820000
b101001 "
b101001 *
1m#
1l#
1h#
b101001 $
b101001 (
b101001 n#
#840000
12
b101010 "
b101010 *
0m#
11
0l#
1,
0h#
b101010 $
b101010 (
b101010 n#
#860000
b101011 "
b101011 *
1m#
1l#
1h#
b101011 $
b101011 (
b101011 n#
#880000
02
1:
b101100 "
b101100 *
0m#
01
19
0l#
0,
14
0h#
b101100 $
b101100 (
b101100 n#
#900000
b101101 "
b101101 *
1m#
1l#
1h#
b101101 $
b101101 (
b101101 n#
#920000
12
b101110 "
b101110 *
0m#
11
0l#
1,
0h#
b101110 $
b101110 (
b101110 n#
#940000
b101111 "
b101111 *
1m#
1l#
1h#
b101111 $
b101111 (
b101111 n#
#960000
02
0:
0B
1J
b110000 "
b110000 *
0m#
01
09
0A
1I
0l#
0,
04
0<
1D
0h#
b110000 $
b110000 (
b110000 n#
#980000
b110001 "
b110001 *
1m#
1l#
1h#
b110001 $
b110001 (
b110001 n#
#1000000
12
b110010 "
b110010 *
0m#
11
0l#
1,
0h#
b110010 $
b110010 (
b110010 n#
#1020000
b110011 "
b110011 *
1m#
1l#
1h#
b110011 $
b110011 (
b110011 n#
#1040000
02
1:
b110100 "
b110100 *
0m#
01
19
0l#
0,
14
0h#
b110100 $
b110100 (
b110100 n#
#1060000
b110101 "
b110101 *
1m#
1l#
1h#
b110101 $
b110101 (
b110101 n#
#1080000
12
b110110 "
b110110 *
0m#
11
0l#
1,
0h#
b110110 $
b110110 (
b110110 n#
#1100000
b110111 "
b110111 *
1m#
1l#
1h#
b110111 $
b110111 (
b110111 n#
#1120000
02
0:
1B
b111000 "
b111000 *
0m#
01
09
1A
0l#
0,
04
1<
0h#
b111000 $
b111000 (
b111000 n#
#1140000
b111001 "
b111001 *
1m#
1l#
1h#
b111001 $
b111001 (
b111001 n#
#1160000
12
b111010 "
b111010 *
0m#
11
0l#
1,
0h#
b111010 $
b111010 (
b111010 n#
#1180000
b111011 "
b111011 *
1m#
1l#
1h#
b111011 $
b111011 (
b111011 n#
#1200000
02
1:
b111100 "
b111100 *
0m#
01
19
0l#
0,
14
0h#
b111100 $
b111100 (
b111100 n#
#1220000
b111101 "
b111101 *
1m#
1l#
1h#
b111101 $
b111101 (
b111101 n#
#1240000
12
b111110 "
b111110 *
0m#
11
0l#
1,
0h#
b111110 $
b111110 (
b111110 n#
#1260000
b111111 "
b111111 *
1m#
1l#
1h#
b111111 $
b111111 (
b111111 n#
#1280000
02
0:
0B
0J
b1 "
b1 *
0R
01
09
0A
0I
0Q
0,
04
0<
0D
0L
0h#
1g#
b0 $
b0 (
b1 #
b1 '
b1 &
b0 n#
#1300000
12
1-
b10 "
b10 *
0m#
b1 )
1i#
0l#
1k#
1h#
b1 $
b1 (
b1 n#
#1320000
0:
05
0.
0-
12
0/
b11 "
b11 *
1m#
b0 )
0i#
11
1l#
0k#
1,
0h#
b10 $
b10 (
b10 n#
#1340000
1:
15
1.
02
1/
1-
b100 "
b100 *
0m#
b11 )
1i#
0l#
1k#
1h#
b11 $
b11 (
b11 n#
#1360000
0B
05
0=
0.
06
0-
02
0/
1:
07
b101 "
b101 *
1m#
b0 )
0i#
01
19
1l#
0k#
0,
14
0h#
b100 $
b100 (
b100 n#
#1380000
12
1-
b110 "
b110 *
0m#
b1 )
1i#
0l#
1k#
1h#
b101 $
b101 (
b101 n#
#1400000
0B
0=
06
1:
07
05
0.
0-
12
0/
b111 "
b111 *
1m#
b0 )
0i#
11
1l#
0k#
1,
0h#
b110 $
b110 (
b110 n#
#1420000
1B
1=
16
0:
17
15
1.
02
1/
1-
b1000 "
b1000 *
0m#
b111 )
1i#
0l#
1k#
1h#
b111 $
b111 (
b111 n#
#1440000
0J
05
0=
0E
0.
06
0>
0-
02
0/
0:
07
1B
0?
b1001 "
b1001 *
1m#
b0 )
0i#
01
09
1A
1l#
0k#
0,
04
1<
0h#
b1000 $
b1000 (
b1000 n#
#1460000
12
1-
b1010 "
b1010 *
0m#
b1 )
1i#
0l#
1k#
1h#
b1001 $
b1001 (
b1001 n#
#1480000
0:
05
0.
0-
12
0/
b1011 "
b1011 *
1m#
b0 )
0i#
11
1l#
0k#
1,
0h#
b1010 $
b1010 (
b1010 n#
#1500000
1:
15
1.
02
1/
1-
b1100 "
b1100 *
0m#
b11 )
1i#
0l#
1k#
1h#
b1011 $
b1011 (
b1011 n#
#1520000
0J
0E
0>
1B
0?
05
0=
0.
06
0-
02
0/
1:
07
b1101 "
b1101 *
1m#
b0 )
0i#
01
19
1l#
0k#
0,
14
0h#
b1100 $
b1100 (
b1100 n#
#1540000
12
1-
b1110 "
b1110 *
0m#
b1 )
1i#
0l#
1k#
1h#
b1101 $
b1101 (
b1101 n#
#1560000
0J
0E
0>
1B
0?
0=
06
1:
07
05
0.
0-
12
0/
b1111 "
b1111 *
1m#
b0 )
0i#
11
1l#
0k#
1,
0h#
b1110 $
b1110 (
b1110 n#
